<mxfile host="app.diagrams.net" modified="2021-03-09T22:10:19.316Z" agent="5.0 (X11)" etag="pAf_OJvmHraT8r-bE6p0" version="14.4.4" type="gitlab">
  <diagram id="vRoneNF4kNoBD-8KlD0G" name="Page-1">
    <mxGraphModel dx="868" dy="471" grid="1" gridSize="10" guides="1" tooltips="1" connect="1" arrows="1" fold="1" page="1" pageScale="1" pageWidth="850" pageHeight="1100" math="0" shadow="0">
      <root>
        <mxCell id="0" />
        <mxCell id="1" parent="0" />
        <mxCell id="6dxE06vbjWV6Nt0y-gkV-1" value="zzz" style="rounded=1;whiteSpace=wrap;html=1;" vertex="1" parent="1">
          <mxGeometry x="450" y="40" width="120" height="60" as="geometry" />
        </mxCell>
        <mxCell id="6dxE06vbjWV6Nt0y-gkV-2" value="ttt" style="ellipse;whiteSpace=wrap;html=1;" vertex="1" parent="1">
          <mxGeometry x="305" y="220" width="120" height="80" as="geometry" />
        </mxCell>
      </root>
    </mxGraphModel>
  </diagram>
</mxfile>
